[
	{
		"ID": 8,
		"Title": "Dear {NAME}:",
		"Content": "{BEGINTIME}, you summoned me from the void, and we formed our bonds shortly thereafter. After getting to know you, I knew I wanted to be by your side, forever. \n\n　{BATTLETIME} --This is the amount of battles you've rushed into, with those fierce courageous eyes that I adore so much. I've fought by yourside as much as you've allowed. I think about your safety everytime you rush off to the frontlines...\n\n  I'm getting tired of waiting, It's not like I'm waiting for you to confess your love to me or anything. You'd better reciprocate. Let {ENDTIME} be our anniversary!",
		"Signature": "Love, Lana"
	},
	{
		"ID": 14,
		"Title": "To {NAME}:",
		"Content": "{BEGINTIME}, our hearts crashed into one another. Maybe bonds are enigmatic like this... There are few days I remember so clearly, but that's because you are very special to me!\n\n　I don't know if you have been counting, but we've been through {BATTLETIME} battles together! I loved each and every one of our adventures! \n\n　On {ENDTIME}, I will confess my love to you! {NAME}, be my only knight and come on every adventure with me, okay?",
		"Signature": "Brave Cherie"
	},
	{
		"ID": 26,
		"Title": "To {NAME}:",
		"Content": "{BEGINTIME}, is when we met for the first time. In front of you {NAME}, I can no longer remain rational. I fear I can keep up this commander and strategist routine no longer.\n\n　Through {BATTLETIME} battles, I have been by your side as the strategist. I hope that I can continue to aid you in future battles. \n\n　Long before {ENDTIME}, we crossed the line of strategist and commander... Let me, Luna, be your everlasting treasure.",
		"Signature": "Yours, Luna"
	},
	{
		"ID": 29,
		"Title": "Dear {NAME}:",
		"Content": "I've forgotten the date of the first time we met, but I will always remember {BEGINTIME}, because on that day... You taught me the meaning of \"Bonds\". \n\n　I used to be a timid girl, but then I experienced {BATTLETIME} thrilling battles with you, {NAME}. I'm so sorry to have troubled you, but I've always tried my best! Please be patient with me! \n\n　{ENDTIME}... Our hearts became one. I want you to know that I like you, {NAME}, so I made a wish to the Goddess... Every day from now on, I will be with you.",
		"Signature": "Tiaris"
	},
	{
		"ID": 5,
		"Title": "Give {NAME}:",
		"Content": "I'm so grateful that destiny brought us together. On the first day we met... Did you even notice me? \n\n　From {BEGINTIME} to {ENDTIME}... The relationship they call a \"bond\" was the best gift I, Chris, ever received from you, {NAME}. \n\n　{BATTLETIME} battles with {NAME}... Thank you for taking me with you, even though I'm weak! In the future, I will work harder, still. If you have any missions that need doing, just give them to Chris!",
		"Signature": "Yours, Chris"
	},
	{
		"ID": 15,
		"Title": "To {NAME}:",
		"Content": "{BEGINTIME}, after crossing time and space countless times, we became tied to each other through our \"bond\". \n\n　We've been through {BATTLETIME} battles together... If my healing ability can help you even a little bit, it's always my greatest honor. \n\n　In the days I've spent with you, I've also seen the suffering and pain you've suffered on the road to saving the world, {NAME}. So... Today, {ENDTIME}, I want to tell you: I'll spend the rest of my life healing your heart!",
		"Signature": "Liana"
	},
	{
		"ID": 51,
		"Title": "To {NAME}:",
		"Content": "On {BEGINTIME}, witnessed by the stars, you and I met. We saw each other and our eyes burst into miraculous flames. Two lonely stars, spiraling forward under this mystical force. At {ENDTIME} on this day... They finally became one. \n\n　{BATTLETIME} battles have been fought at our hands. I don't like war, but you have become the reason I fight. \n\n　People... They always do whatever they can do, but I choose to fall in love with you.",
		"Signature": "Shelfaniel"
	},
	{
		"ID": 28,
		"Title": "Hi, {NAME}:",
		"Content": "Was {BEGINTIME} the day we first met each other? Zerida doesn't quite understand what \"anniversary\" means, but this day... Is very, very important! \n\n　My favorite thing is hanging out with {NAME}! {BATTLETIME} battles... I reckon that's what you mean by \"dating\", right? What do you think? Was that fun? \n\n　Although {NAME} has so many friends and allies, I'm not jealous at all! I only need one person, {NAME}... I only belong to you.",
		"Signature": "Zerida"
	},
	{
		"ID": 33,
		"Title": "Dear {NAME}:",
		"Content": "Do you remember the first time we met each other? It was on {BEGINTIME}, {NAME} became my leader. \n\n　In those {BATTLETIME} battles, I often stared at your back, trying to measure the distance between our hearts in a quick glance between the storms of war... Until {ENDTIME}, when I finally got the answer. \n\n　I wanted to be a shield to protect everything I love; I wanted to curl up as a kitten and sleep on my knight's chest. Then I finally decided to go straight to your heart and be with you... I wanted to bloom and bask in your gentle embrace.",
		"Signature": "Your protector, Freya"
	},
	{
		"ID": 52,
		"Title": "To {NAME}:",
		"Content": "{BEGINTIME}, that's the first day we met each other. Make sure you memorize this date! \n　{BATTLETIME} battles. Those battles were my favorite moments ever. Only now do I understand that what I love most is your handsome face on the battlefield and the way you encourage me. \n　{ENDTIME}, I've been waiting for this day to come. I wonder if you like the way I look at you or not... \n　The time of our final agreement approaches, and I am proud to tell the whole world that from now on, I will accompany {NAME} on his adventures forever!",
		"Signature": "Yours, Angelina"
	},
	{
		"ID": 11,
		"Title": "To {NAME}:",
		"Content": "{BEGINTIME}, do you still remember the first time we met, {NAME}? As I remember... The world was full of pink on that day. \n　In {BATTLETIME} battles, we fought side by side. I looked forward to you talking to me, I looked forward to you smiling at me, as if your words had some magic power that could always makes me feel complete. Do I sound a bit... weak? Surely, you can't dislike me because of this! \n　Finally, I have reached this day - {ENDTIME}. So... {NAME}! Please be my special warrior!",
		"Signature": "Narm"
	},
	{
		"ID": 18,
		"Title": "To {NAME}:",
		"Content": "I never imagined that one day, that I would be in your arms, {NAME}! \n　{BEGINTIME}, what happened on that day seemed to be an act of fate. Sometimes I think the world is too big and that we met too late, but the world is so small, and over {BATTLETIME} battles, I only ever needed to look up to see your smiling face. \n　As long as we have each other, nothing is too late. But I'm not the sort of person who is easily satisfied! {ENDTIME} the arrival of this day does not mean the end. In the future, you can only choose to love me, or love me more. \n　So, kiddo, make sure you're always there for me, ok?",
		"Signature": "Imelda"
	},
	{
		"ID": 30,
		"Title": "To {NAME}:",
		"Content": "From the day of our first encounter, I felt a special magic in your body. From {BEGINTIME} to {ENDTIME}, this love has never stopped throbbing in my heart... The magic of love... Bit by bit it accumulates on the battlefield. Having been through {BATTLETIME} battles with {NAME}, I believe that now is the moment to let it all bloom... I think the magic of this union will amaze everyone! \n These days have been the happiest of my life. I liked every present you prepared for me... I want to use a magic spell named \"Love\" to ensure that you and I are together forever!",
		"Signature": "Yours, Liffany"
	},
	{
		"ID": 56,
		"Title": "To {NAME}:",
		"Content": "I remember that from {BEGINTIME}, I began to really rely on you. Up till today, {ENDTIME}, this feeling has only grown. \n I'm always being kidnapped by bad guys, but with your help I've become stronger. With {NAME}, together for {BATTLETIME} battles... Each time is like a sweet memento of our growth together. \n Thank you for your kindness. That kind of brotherly protection is my favorite gift! But someone as unruly as myself cannot be satisfied with simple sibling affection...\nThank you for spending time with me and giving me the courage to say \"Love\".",
		"Signature": "Rachel"
	},
	{
		"ID": 54,
		"Title": "To {NAME}:",
		"Content": "Demons and humans shouldn't be together, but I... I accept this destiny of romance with you. From {BEGINTIME} to {ENDTIME}, I've fought together with {NAME} for {BATTLETIME}. I was born for the ruthlessness of battle, but your existence has greatly heightened the significance of \"love\" for me... \nForgive me for not knowing how to express myself, but know that you are in my heart. \n I think... even though we are of a different kind, I always want to be with you, {NAME}.",
		"Signature": "Listell"
	},
	{
		"ID": 39,
		"Title": "My loyal servant, {NAME}:",
		"Content": "{BEGINTIME}, a self-righteous fool has appeared before me. I'm going to follow him and engage in a journey of life and death. No joking! I am the great Feraquea! Why would I fight for a humble human!? \n　But... I cannot help myself. {BATTLETIME} times, we fought in battles for life and death. I followed him, cursing his servants - idiots, fools, and in this way masked my inner panic when he looks me. Although I don't want to admit it... {NAME}, you are that idiot, that fool! \n　Today, at {ENDTIME}, I will declare to the world: You have the admiration of the great Feraquea, and you shall serve me for the rest of your days. No holidays and no excuses!",
		"Signature": "The Great Feraquea"
	},
	{
		"ID": 31,
		"Title": "To {NAME}:",
		"Content": "{BEGINTIME}... That day, under the Goddess' gaze, {NAME} appeared before me and reached out. In that moment, I saw the holy light shining behind you, and I knew that this would be my life's direction. \n　In {BATTLETIME} tumultuous battles, I saw the increasing scars on your face and your growing weariness. But the light in your eyes that yearned for peace grew ever brighter. \n　Here, today at {ENDTIME}, I want to tell you clearly: Sophia will not only care for the scars on your face, she will also care for the weariness in your heart, so that you will always be like the day we met!",
		"Signature": "Your Sophia"
	},
	{
		"ID": 20,
		"Title": "To {NAME}:",
		"Content": "I've always been a lonely person. I was rejected by the Demon Tribe, and forced away by humans. So I've always called humans dirty and cursed demons. However... On {BEGINTIME}, when I first saw {NAME}, I thought for the first time that humans were not all so dirty. At least... you are very clean. \n　As we fought in {BATTLETIME} battles together, amidst the smoke and blood, I suddenly realized... I haven't felt lonely in a long time. \n　I don't want to imagine a day without you, when the loneliness swallows me again. So today, on {ENDTIME}, I want to tell you, {NAME}: I like you! Don't let me go back to being alone!",
		"Signature": "Sonya"
	}
]