[
	{
		"ID": 1,
		"LevelLimit": 5
	},
	{
		"ID": 2,
		"LevelLimit": 10
	},
	{
		"ID": 3,
		"LevelLimit": 20
	},
	{
		"ID": 4,
		"LevelLimit": 30
	},
	{
		"ID": 5,
		"LevelLimit": 40
	},
	{
		"ID": 6,
		"LevelLimit": 50
	}
]