[
	{
		"ID": 1,
		"StoreID": "StoreId_Crystal",
		"Name": "50K Gold",
		"ItemType": "GoodsType_Gold",
		"ItemId": 0,
		"Nums": 50000,
		"ShowStartTime": "2016/12/14 3:30:30",
		"ShowEndTime": "",
		"BuyLimitType": "BuyRuleType_Forever",
		"Param": 0,
		"Count": 0,
		"CurrencyType": "GoodsType_Crystal",
		"FirstPrice": 30,
		"NormalPrice": 30,
		"DiscountPrice": 0,
		"DiscountStartTime": "",
		"DiscountEndTime": "",
		"Lable": "LabelType_None",
		"IsFirstOnSale": false,
		"UISort": 0,
		"PlayerBuyMinLevel": 0
	},
	{
		"ID": 2,
		"StoreID": "StoreId_Crystal",
		"Name": "110K Gold",
		"ItemType": "GoodsType_Gold",
		"ItemId": 0,
		"Nums": 110000,
		"ShowStartTime": "2016/12/14 3:30:30",
		"ShowEndTime": "",
		"BuyLimitType": "BuyRuleType_Forever",
		"Param": 0,
		"Count": 0,
		"CurrencyType": "GoodsType_Crystal",
		"FirstPrice": 60,
		"NormalPrice": 60,
		"DiscountPrice": 0,
		"DiscountStartTime": "",
		"DiscountEndTime": "",
		"Lable": "LabelType_None",
		"IsFirstOnSale": false,
		"UISort": 0,
		"PlayerBuyMinLevel": 0
	},
	{
		"ID": 3,
		"StoreID": "StoreId_Crystal",
		"Name": "1.2M Gold",
		"ItemType": "GoodsType_Gold",
		"ItemId": 0,
		"Nums": 1200000,
		"ShowStartTime": "2016/12/14 3:30:30",
		"ShowEndTime": "",
		"BuyLimitType": "BuyRuleType_Forever",
		"Param": 0,
		"Count": 0,
		"CurrencyType": "GoodsType_Crystal",
		"FirstPrice": 600,
		"NormalPrice": 600,
		"DiscountPrice": 0,
		"DiscountStartTime": "",
		"DiscountEndTime": "",
		"Lable": "LabelType_None",
		"IsFirstOnSale": false,
		"UISort": 0,
		"PlayerBuyMinLevel": 0
	},
	{
		"ID": 4,
		"StoreID": "StoreId_Crystal",
		"Name": "Trinity Voucher",
		"ItemType": "GoodsType_Item",
		"ItemId": 4001,
		"Nums": 1,
		"ShowStartTime": "2016/12/14 3:30:30",
		"ShowEndTime": "",
		"BuyLimitType": "BuyRuleType_Forever",
		"Param": 0,
		"Count": 0,
		"CurrencyType": "GoodsType_Crystal",
		"FirstPrice": 88,
		"NormalPrice": 88,
		"DiscountPrice": 0,
		"DiscountStartTime": "",
		"DiscountEndTime": "",
		"Lable": "LabelType_None",
		"IsFirstOnSale": false,
		"UISort": 0,
		"PlayerBuyMinLevel": 0
	},
	{
		"ID": 5,
		"StoreID": "StoreId_Crystal",
		"Name": "Trinity Voucher x10",
		"ItemType": "GoodsType_Item",
		"ItemId": 4001,
		"Nums": 10,
		"ShowStartTime": "2016/12/14 3:30:30",
		"ShowEndTime": "",
		"BuyLimitType": "BuyRuleType_Forever",
		"Param": 0,
		"Count": 0,
		"CurrencyType": "GoodsType_Crystal",
		"FirstPrice": 880,
		"NormalPrice": 880,
		"DiscountPrice": 0,
		"DiscountStartTime": "",
		"DiscountEndTime": "",
		"Lable": "LabelType_None",
		"IsFirstOnSale": false,
		"UISort": 0,
		"PlayerBuyMinLevel": 10
	},
	{
		"ID": 6,
		"StoreID": "StoreId_Honor",
		"Name": "Rune Stone",
		"ItemType": "GoodsType_Item",
		"ItemId": 3009,
		"Nums": 1,
		"ShowStartTime": "2016/12/14 3:30:31",
		"ShowEndTime": "",
		"BuyLimitType": "BuyRuleType_MonthTime",
		"Param": 0,
		"Count": 1,
		"CurrencyType": "GoodsType_ArenaHonour",
		"FirstPrice": 500,
		"NormalPrice": 500,
		"DiscountPrice": 0,
		"DiscountStartTime": "",
		"DiscountEndTime": "",
		"Lable": "LabelType_None",
		"IsFirstOnSale": false,
		"UISort": 0,
		"PlayerBuyMinLevel": 0
	},
	{
		"ID": 7,
		"StoreID": "StoreId_Honor",
		"Name": "SR Accessory Gift Box",
		"ItemType": "GoodsType_Item",
		"ItemId": 4012,
		"Nums": 1,
		"ShowStartTime": "2016/12/14 3:30:33",
		"ShowEndTime": "",
		"BuyLimitType": "BuyRuleType_MonthTime",
		"Param": 0,
		"Count": 2,
		"CurrencyType": "GoodsType_ArenaHonour",
		"FirstPrice": 200,
		"NormalPrice": 200,
		"DiscountPrice": 0,
		"DiscountStartTime": "",
		"DiscountEndTime": "",
		"Lable": "LabelType_None",
		"IsFirstOnSale": false,
		"UISort": 0,
		"PlayerBuyMinLevel": 0
	},
	{
		"ID": 8,
		"StoreID": "StoreId_Honor",
		"Name": "SSR Accessory Gift Box",
		"ItemType": "GoodsType_Item",
		"ItemId": 4013,
		"Nums": 1,
		"ShowStartTime": "2016/12/14 3:30:33",
		"ShowEndTime": "",
		"BuyLimitType": "BuyRuleType_MonthTime",
		"Param": 0,
		"Count": 1,
		"CurrencyType": "GoodsType_ArenaHonour",
		"FirstPrice": 1000,
		"NormalPrice": 1000,
		"DiscountPrice": 0,
		"DiscountStartTime": "",
		"DiscountEndTime": "",
		"Lable": "LabelType_None",
		"IsFirstOnSale": false,
		"UISort": 0,
		"PlayerBuyMinLevel": 0
	},
	{
		"ID": 9,
		"StoreID": "StoreId_Honor",
		"Name": "Trinity Voucher",
		"ItemType": "GoodsType_Item",
		"ItemId": 4001,
		"Nums": 1,
		"ShowStartTime": "2016/12/14 3:30:33",
		"ShowEndTime": "",
		"BuyLimitType": "BuyRuleType_WeekTime",
		"Param": 0,
		"Count": 1,
		"CurrencyType": "GoodsType_ArenaHonour",
		"FirstPrice": 150,
		"NormalPrice": 150,
		"DiscountPrice": 0,
		"DiscountStartTime": "",
		"DiscountEndTime": "",
		"Lable": "LabelType_None",
		"IsFirstOnSale": false,
		"UISort": 0,
		"PlayerBuyMinLevel": 0
	},
	{
		"ID": 10,
		"StoreID": "StoreId_Honor",
		"Name": "Random Accessory Gift Box",
		"ItemType": "GoodsType_Item",
		"ItemId": 4014,
		"Nums": 1,
		"ShowStartTime": "2016/12/14 3:30:33",
		"ShowEndTime": "",
		"BuyLimitType": "BuyRuleType_Forever",
		"Param": 0,
		"Count": 0,
		"CurrencyType": "GoodsType_ArenaHonour",
		"FirstPrice": 300,
		"NormalPrice": 300,
		"DiscountPrice": 0,
		"DiscountStartTime": "",
		"DiscountEndTime": "",
		"Lable": "LabelType_None",
		"IsFirstOnSale": false,
		"UISort": 0,
		"PlayerBuyMinLevel": 0
	},
	{
		"ID": 11,
		"StoreID": "StoreId_Friendship",
		"Name": "Friendship Voucher",
		"ItemType": "GoodsType_Item",
		"ItemId": 4000,
		"Nums": 1,
		"ShowStartTime": "2016/12/14 3:30:34",
		"ShowEndTime": "",
		"BuyLimitType": "BuyRuleType_Forever",
		"Param": 0,
		"Count": 0,
		"CurrencyType": "GoodsType_FriendshipPoints",
		"FirstPrice": 100,
		"NormalPrice": 100,
		"DiscountPrice": 0,
		"DiscountStartTime": "",
		"DiscountEndTime": "",
		"Lable": "LabelType_None",
		"IsFirstOnSale": false,
		"UISort": 0,
		"PlayerBuyMinLevel": 0
	},
	{
		"ID": 12,
		"StoreID": "StoreId_Friendship",
		"Name": "Trinity Voucher",
		"ItemType": "GoodsType_Item",
		"ItemId": 4001,
		"Nums": 1,
		"ShowStartTime": "2016/12/14 3:30:33",
		"ShowEndTime": "",
		"BuyLimitType": "BuyRuleType_MonthTime",
		"Param": 0,
		"Count": 2,
		"CurrencyType": "GoodsType_FriendshipPoints",
		"FirstPrice": 600,
		"NormalPrice": 600,
		"DiscountPrice": 0,
		"DiscountStartTime": "",
		"DiscountEndTime": "",
		"Lable": "LabelType_None",
		"IsFirstOnSale": false,
		"UISort": 0,
		"PlayerBuyMinLevel": 0
	},
	{
		"ID": 13,
		"StoreID": "StoreId_Friendship",
		"Name": "Bright Gem",
		"ItemType": "GoodsType_Item",
		"ItemId": 3102,
		"Nums": 1,
		"ShowStartTime": "2016/12/14 3:30:34",
		"ShowEndTime": "",
		"BuyLimitType": "BuyRuleType_Forever",
		"Param": 0,
		"Count": 0,
		"CurrencyType": "GoodsType_FriendshipPoints",
		"FirstPrice": 100,
		"NormalPrice": 100,
		"DiscountPrice": 0,
		"DiscountStartTime": "",
		"DiscountEndTime": "",
		"Lable": "LabelType_None",
		"IsFirstOnSale": false,
		"UISort": 0,
		"PlayerBuyMinLevel": 0
	},
	{
		"ID": 14,
		"StoreID": "StoreId_Friendship",
		"Name": "Rare Crafter's Hammer",
		"ItemType": "GoodsType_Equipment",
		"ItemId": 303,
		"Nums": 1,
		"ShowStartTime": "2016/12/14 3:30:34",
		"ShowEndTime": "",
		"BuyLimitType": "BuyRuleType_Forever",
		"Param": 0,
		"Count": 0,
		"CurrencyType": "GoodsType_FriendshipPoints",
		"FirstPrice": 50,
		"NormalPrice": 50,
		"DiscountPrice": 0,
		"DiscountStartTime": "",
		"DiscountEndTime": "",
		"Lable": "LabelType_None",
		"IsFirstOnSale": false,
		"UISort": 0,
		"PlayerBuyMinLevel": 0
	},
	{
		"ID": 15,
		"StoreID": "StoreId_Friendship",
		"Name": "Rare EXP Potion",
		"ItemType": "GoodsType_Item",
		"ItemId": 3004,
		"Nums": 2,
		"ShowStartTime": "2016/12/14 3:30:34",
		"ShowEndTime": "",
		"BuyLimitType": "BuyRuleType_Forever",
		"Param": 0,
		"Count": 0,
		"CurrencyType": "GoodsType_FriendshipPoints",
		"FirstPrice": 50,
		"NormalPrice": 50,
		"DiscountPrice": 0,
		"DiscountStartTime": "",
		"DiscountEndTime": "",
		"Lable": "LabelType_None",
		"IsFirstOnSale": false,
		"UISort": 0,
		"PlayerBuyMinLevel": 0
	},
	{
		"ID": 16,
		"StoreID": "StoreId_Friendship",
		"Name": "Bright Gem x10",
		"ItemType": "GoodsType_Item",
		"ItemId": 3102,
		"Nums": 10,
		"ShowStartTime": "2016/12/14 3:30:34",
		"ShowEndTime": "",
		"BuyLimitType": "BuyRuleType_Forever",
		"Param": 0,
		"Count": 0,
		"CurrencyType": "GoodsType_FriendshipPoints",
		"FirstPrice": 1000,
		"NormalPrice": 1000,
		"DiscountPrice": 0,
		"DiscountStartTime": "",
		"DiscountEndTime": "",
		"Lable": "LabelType_None",
		"IsFirstOnSale": false,
		"UISort": 0,
		"PlayerBuyMinLevel": 0
	},
	{
		"ID": 17,
		"StoreID": "StoreId_Friendship",
		"Name": "Rare Crafter's Hammer x10",
		"ItemType": "GoodsType_Equipment",
		"ItemId": 303,
		"Nums": 10,
		"ShowStartTime": "2016/12/14 3:30:34",
		"ShowEndTime": "",
		"BuyLimitType": "BuyRuleType_Forever",
		"Param": 0,
		"Count": 0,
		"CurrencyType": "GoodsType_FriendshipPoints",
		"FirstPrice": 500,
		"NormalPrice": 500,
		"DiscountPrice": 0,
		"DiscountStartTime": "",
		"DiscountEndTime": "",
		"Lable": "LabelType_None",
		"IsFirstOnSale": false,
		"UISort": 0,
		"PlayerBuyMinLevel": 0
	},
	{
		"ID": 18,
		"StoreID": "StoreId_Friendship",
		"Name": "Rare EXP Potion x20",
		"ItemType": "GoodsType_Item",
		"ItemId": 3004,
		"Nums": 20,
		"ShowStartTime": "2016/12/14 3:30:34",
		"ShowEndTime": "",
		"BuyLimitType": "BuyRuleType_Forever",
		"Param": 0,
		"Count": 0,
		"CurrencyType": "GoodsType_FriendshipPoints",
		"FirstPrice": 500,
		"NormalPrice": 500,
		"DiscountPrice": 0,
		"DiscountStartTime": "",
		"DiscountEndTime": "",
		"Lable": "LabelType_None",
		"IsFirstOnSale": false,
		"UISort": 0,
		"PlayerBuyMinLevel": 0
	},
	{
		"ID": 102,
		"StoreID": "StoreId_SkinHero",
		"Name": "Dragon Slayer",
		"ItemType": "GoodsType_HeroSkin",
		"ItemId": 1201,
		"Nums": 1,
		"ShowStartTime": "2016/12/14 3:30:34",
		"ShowEndTime": "",
		"BuyLimitType": "BuyRuleType_Forever",
		"Param": 0,
		"Count": 0,
		"CurrencyType": "GoodsType_SkinTicket",
		"FirstPrice": 98,
		"NormalPrice": 98,
		"DiscountPrice": 0,
		"DiscountStartTime": "",
		"DiscountEndTime": "",
		"Lable": "LabelType_None",
		"IsFirstOnSale": false,
		"UISort": 62,
		"PlayerBuyMinLevel": 0
	},
	{
		"ID": 103,
		"StoreID": "StoreId_SkinHero",
		"Name": "Cherry Miko",
		"ItemType": "GoodsType_HeroSkin",
		"ItemId": 1501,
		"Nums": 1,
		"ShowStartTime": "2016/12/14 3:30:34",
		"ShowEndTime": "",
		"BuyLimitType": "BuyRuleType_Forever",
		"Param": 0,
		"Count": 0,
		"CurrencyType": "GoodsType_SkinTicket",
		"FirstPrice": 98,
		"NormalPrice": 98,
		"DiscountPrice": 0,
		"DiscountStartTime": "",
		"DiscountEndTime": "",
		"Lable": "LabelType_None",
		"IsFirstOnSale": false,
		"UISort": 63,
		"PlayerBuyMinLevel": 0
	},
	{
		"ID": 104,
		"StoreID": "StoreId_SkinHero",
		"Name": "Gunslinger",
		"ItemType": "GoodsType_HeroSkin",
		"ItemId": 601,
		"Nums": 1,
		"ShowStartTime": "2016/12/14 3:30:34",
		"ShowEndTime": "",
		"BuyLimitType": "BuyRuleType_Forever",
		"Param": 0,
		"Count": 0,
		"CurrencyType": "GoodsType_SkinTicket",
		"FirstPrice": 98,
		"NormalPrice": 98,
		"DiscountPrice": 0,
		"DiscountStartTime": "",
		"DiscountEndTime": "",
		"Lable": "LabelType_None",
		"IsFirstOnSale": false,
		"UISort": 64,
		"PlayerBuyMinLevel": 0
	},
	{
		"ID": 105,
		"StoreID": "StoreId_SkinHero",
		"Name": "Dark Warlord",
		"ItemType": "GoodsType_HeroSkin",
		"ItemId": 701,
		"Nums": 1,
		"ShowStartTime": "2016/12/14 3:30:34",
		"ShowEndTime": "",
		"BuyLimitType": "BuyRuleType_Forever",
		"Param": 0,
		"Count": 0,
		"CurrencyType": "GoodsType_SkinTicket",
		"FirstPrice": 98,
		"NormalPrice": 98,
		"DiscountPrice": 0,
		"DiscountStartTime": "",
		"DiscountEndTime": "",
		"Lable": "LabelType_None",
		"IsFirstOnSale": false,
		"UISort": 65,
		"PlayerBuyMinLevel": 0
	},
	{
		"ID": 106,
		"StoreID": "StoreId_SkinHero",
		"Name": "Sonic Fairy",
		"ItemType": "GoodsType_HeroSkin",
		"ItemId": 801,
		"Nums": 1,
		"ShowStartTime": "2016/12/14 3:30:34",
		"ShowEndTime": "",
		"BuyLimitType": "BuyRuleType_Forever",
		"Param": 0,
		"Count": 0,
		"CurrencyType": "GoodsType_SkinTicket",
		"FirstPrice": 98,
		"NormalPrice": 98,
		"DiscountPrice": 0,
		"DiscountStartTime": "",
		"DiscountEndTime": "",
		"Lable": "LabelType_None",
		"IsFirstOnSale": false,
		"UISort": 66,
		"PlayerBuyMinLevel": 0
	},
	{
		"ID": 107,
		"StoreID": "StoreId_SkinHero",
		"Name": "Burning Passion",
		"ItemType": "GoodsType_HeroSkin",
		"ItemId": 1001,
		"Nums": 1,
		"ShowStartTime": "2016/12/14 3:30:34",
		"ShowEndTime": "",
		"BuyLimitType": "BuyRuleType_Forever",
		"Param": 0,
		"Count": 0,
		"CurrencyType": "GoodsType_SkinTicket",
		"FirstPrice": 98,
		"NormalPrice": 98,
		"DiscountPrice": 0,
		"DiscountStartTime": "",
		"DiscountEndTime": "",
		"Lable": "LabelType_None",
		"IsFirstOnSale": false,
		"UISort": 58,
		"PlayerBuyMinLevel": 0
	},
	{
		"ID": 108,
		"StoreID": "StoreId_SkinHero",
		"Name": "Riot Police",
		"ItemType": "GoodsType_HeroSkin",
		"ItemId": 501,
		"Nums": 1,
		"ShowStartTime": "2016/12/14 3:30:38",
		"ShowEndTime": "",
		"BuyLimitType": "BuyRuleType_Forever",
		"Param": 0,
		"Count": 0,
		"CurrencyType": "GoodsType_SkinTicket",
		"FirstPrice": 98,
		"NormalPrice": 98,
		"DiscountPrice": 0,
		"DiscountStartTime": "",
		"DiscountEndTime": "",
		"Lable": "LabelType_None",
		"IsFirstOnSale": false,
		"UISort": 59,
		"PlayerBuyMinLevel": 0
	},
	{
		"ID": 109,
		"StoreID": "StoreId_SkinHero",
		"Name": "X-Rigüler",
		"ItemType": "GoodsType_HeroSkin",
		"ItemId": 2501,
		"Nums": 1,
		"ShowStartTime": "2016/12/14 3:30:34",
		"ShowEndTime": "",
		"BuyLimitType": "BuyRuleType_Forever",
		"Param": 0,
		"Count": 0,
		"CurrencyType": "GoodsType_SkinTicket",
		"FirstPrice": 98,
		"NormalPrice": 98,
		"DiscountPrice": 0,
		"DiscountStartTime": "",
		"DiscountEndTime": "",
		"Lable": "LabelType_None",
		"IsFirstOnSale": false,
		"UISort": 60,
		"PlayerBuyMinLevel": 0
	},
	{
		"ID": 110,
		"StoreID": "StoreId_SkinHero",
		"Name": "Pirate Queen",
		"ItemType": "GoodsType_HeroSkin",
		"ItemId": 1801,
		"Nums": 1,
		"ShowStartTime": "2016/12/14 3:30:38",
		"ShowEndTime": "",
		"BuyLimitType": "BuyRuleType_Forever",
		"Param": 0,
		"Count": 0,
		"CurrencyType": "GoodsType_SkinTicket",
		"FirstPrice": 98,
		"NormalPrice": 98,
		"DiscountPrice": 0,
		"DiscountStartTime": "",
		"DiscountEndTime": "",
		"Lable": "LabelType_None",
		"IsFirstOnSale": false,
		"UISort": 61,
		"PlayerBuyMinLevel": 0
	},
	{
		"ID": 113,
		"StoreID": "StoreId_SkinHero",
		"Name": "Magical Mystery",
		"ItemType": "GoodsType_HeroSkin",
		"ItemId": 1301,
		"Nums": 1,
		"ShowStartTime": "2016/12/14 3:30:38",
		"ShowEndTime": "",
		"BuyLimitType": "BuyRuleType_Forever",
		"Param": 0,
		"Count": 0,
		"CurrencyType": "GoodsType_SkinTicket",
		"FirstPrice": 98,
		"NormalPrice": 98,
		"DiscountPrice": 0,
		"DiscountStartTime": "",
		"DiscountEndTime": "",
		"Lable": "LabelType_None",
		"IsFirstOnSale": false,
		"UISort": 55,
		"PlayerBuyMinLevel": 0
	},
	{
		"ID": 114,
		"StoreID": "StoreId_SkinHero",
		"Name": "Shadows of Summer",
		"ItemType": "GoodsType_HeroSkin",
		"ItemId": 4901,
		"Nums": 1,
		"ShowStartTime": "2019/8/22 6:00:00",
		"ShowEndTime": "2019/8/28 23:59:59",
		"BuyLimitType": "BuyRuleType_Forever",
		"Param": 0,
		"Count": 0,
		"CurrencyType": "GoodsType_SkinTicket",
		"FirstPrice": 188,
		"NormalPrice": 188,
		"DiscountPrice": 0,
		"DiscountStartTime": "",
		"DiscountEndTime": "",
		"Lable": "LabelType_FixedTime",
		"IsFirstOnSale": true,
		"UISort": 39,
		"PlayerBuyMinLevel": 0
	},
	{
		"ID": 116,
		"StoreID": "StoreId_SkinHero",
		"Name": "Coastal Beauty",
		"ItemType": "GoodsType_HeroSkin",
		"ItemId": 802,
		"Nums": 1,
		"ShowStartTime": "2019/8/22 6:00:00",
		"ShowEndTime": "2019/8/28 23:59:59",
		"BuyLimitType": "BuyRuleType_Forever",
		"Param": 0,
		"Count": 0,
		"CurrencyType": "GoodsType_SkinTicket",
		"FirstPrice": 188,
		"NormalPrice": 188,
		"DiscountPrice": 0,
		"DiscountStartTime": "",
		"DiscountEndTime": "",
		"Lable": "LabelType_FixedTime",
		"IsFirstOnSale": true,
		"UISort": 37,
		"PlayerBuyMinLevel": 0
	},
	{
		"ID": 117,
		"StoreID": "StoreId_SkinHero",
		"Name": "Water Bomb Attack",
		"ItemType": "GoodsType_HeroSkin",
		"ItemId": 2602,
		"Nums": 1,
		"ShowStartTime": "2019/8/22 6:00:00",
		"ShowEndTime": "2019/8/28 23:59:59",
		"BuyLimitType": "BuyRuleType_Forever",
		"Param": 0,
		"Count": 0,
		"CurrencyType": "GoodsType_SkinTicket",
		"FirstPrice": 188,
		"NormalPrice": 188,
		"DiscountPrice": 0,
		"DiscountStartTime": "",
		"DiscountEndTime": "",
		"Lable": "LabelType_FixedTime",
		"IsFirstOnSale": true,
		"UISort": 38,
		"PlayerBuyMinLevel": 0
	},
	{
		"ID": 118,
		"StoreID": "StoreId_SkinHero",
		"Name": "Romantic Summer",
		"ItemType": "GoodsType_HeroSkin",
		"ItemId": 1101,
		"Nums": 1,
		"ShowStartTime": "2019/8/22 6:00:00",
		"ShowEndTime": "2019/8/28 23:59:59",
		"BuyLimitType": "BuyRuleType_Forever",
		"Param": 0,
		"Count": 0,
		"CurrencyType": "GoodsType_SkinTicket",
		"FirstPrice": 188,
		"NormalPrice": 188,
		"DiscountPrice": 0,
		"DiscountStartTime": "",
		"DiscountEndTime": "",
		"Lable": "LabelType_FixedTime",
		"IsFirstOnSale": true,
		"UISort": 40,
		"PlayerBuyMinLevel": 0
	},
	{
		"ID": 119,
		"StoreID": "StoreId_SkinHero",
		"Name": "Beach Babe",
		"ItemType": "GoodsType_HeroSkin",
		"ItemId": 2901,
		"Nums": 1,
		"ShowStartTime": "2019/8/22 6:00:00",
		"ShowEndTime": "2019/8/28 23:59:59",
		"BuyLimitType": "BuyRuleType_Forever",
		"Param": 0,
		"Count": 0,
		"CurrencyType": "GoodsType_SkinTicket",
		"FirstPrice": 188,
		"NormalPrice": 188,
		"DiscountPrice": 0,
		"DiscountStartTime": "",
		"DiscountEndTime": "",
		"Lable": "LabelType_FixedTime",
		"IsFirstOnSale": true,
		"UISort": 36,
		"PlayerBuyMinLevel": 0
	},
	{
		"ID": 121,
		"StoreID": "StoreId_SkinHero",
		"Name": "Soul Reaper",
		"ItemType": "GoodsType_HeroSkin",
		"ItemId": 901,
		"Nums": 1,
		"ShowStartTime": "2016/12/14 3:30:48",
		"ShowEndTime": "",
		"BuyLimitType": "BuyRuleType_Forever",
		"Param": 0,
		"Count": 0,
		"CurrencyType": "GoodsType_SkinTicket",
		"FirstPrice": 98,
		"NormalPrice": 98,
		"DiscountPrice": 0,
		"DiscountStartTime": "",
		"DiscountEndTime": "",
		"Lable": "LabelType_None",
		"IsFirstOnSale": false,
		"UISort": 55,
		"PlayerBuyMinLevel": 0
	},
	{
		"ID": 122,
		"StoreID": "StoreId_SkinHero",
		"Name": "Deadly Gentleman",
		"ItemType": "GoodsType_HeroSkin",
		"ItemId": 3601,
		"Nums": 1,
		"ShowStartTime": "2016/12/14 3:30:49",
		"ShowEndTime": "",
		"BuyLimitType": "BuyRuleType_Forever",
		"Param": 0,
		"Count": 0,
		"CurrencyType": "GoodsType_SkinTicket",
		"FirstPrice": 98,
		"NormalPrice": 98,
		"DiscountPrice": 0,
		"DiscountStartTime": "",
		"DiscountEndTime": "",
		"Lable": "LabelType_None",
		"IsFirstOnSale": false,
		"UISort": 56,
		"PlayerBuyMinLevel": 0
	},
	{
		"ID": 124,
		"StoreID": "StoreId_SkinHero",
		"Name": "Galactic Hero",
		"ItemType": "GoodsType_HeroSkin",
		"ItemId": 1102,
		"Nums": 1,
		"ShowStartTime": "2016/12/14 3:30:38",
		"ShowEndTime": "",
		"BuyLimitType": "BuyRuleType_Forever",
		"Param": 0,
		"Count": 0,
		"CurrencyType": "GoodsType_SkinTicket",
		"FirstPrice": 98,
		"NormalPrice": 98,
		"DiscountPrice": 0,
		"DiscountStartTime": "",
		"DiscountEndTime": "",
		"Lable": "LabelType_None",
		"IsFirstOnSale": false,
		"UISort": 45,
		"PlayerBuyMinLevel": 0
	},
	{
		"ID": 125,
		"StoreID": "StoreId_SkinHero",
		"Name": "Storm God",
		"ItemType": "GoodsType_HeroSkin",
		"ItemId": 2701,
		"Nums": 1,
		"ShowStartTime": "2016/12/14 3:30:38",
		"ShowEndTime": "",
		"BuyLimitType": "BuyRuleType_Forever",
		"Param": 0,
		"Count": 0,
		"CurrencyType": "GoodsType_SkinTicket",
		"FirstPrice": 98,
		"NormalPrice": 98,
		"DiscountPrice": 0,
		"DiscountStartTime": "",
		"DiscountEndTime": "",
		"Lable": "LabelType_None",
		"IsFirstOnSale": false,
		"UISort": 46,
		"PlayerBuyMinLevel": 0
	},
	{
		"ID": 126,
		"StoreID": "StoreId_SkinHero",
		"Name": "Spartacus",
		"ItemType": "GoodsType_HeroSkin",
		"ItemId": 3302,
		"Nums": 1,
		"ShowStartTime": "2016/12/14 3:30:38",
		"ShowEndTime": "",
		"BuyLimitType": "BuyRuleType_Forever",
		"Param": 0,
		"Count": 0,
		"CurrencyType": "GoodsType_SkinTicket",
		"FirstPrice": 98,
		"NormalPrice": 98,
		"DiscountPrice": 0,
		"DiscountStartTime": "",
		"DiscountEndTime": "",
		"Lable": "LabelType_None",
		"IsFirstOnSale": false,
		"UISort": 47,
		"PlayerBuyMinLevel": 0
	},
	{
		"ID": 129,
		"StoreID": "StoreId_SkinHero",
		"Name": "Chef de Cuisine",
		"ItemType": "GoodsType_HeroSkin",
		"ItemId": 301,
		"Nums": 1,
		"ShowStartTime": "2016/12/14 3:30:38",
		"ShowEndTime": "",
		"BuyLimitType": "BuyRuleType_Forever",
		"Param": 0,
		"Count": 0,
		"CurrencyType": "GoodsType_SkinTicket",
		"FirstPrice": 98,
		"NormalPrice": 98,
		"DiscountPrice": 0,
		"DiscountStartTime": "",
		"DiscountEndTime": "",
		"Lable": "LabelType_None",
		"IsFirstOnSale": false,
		"UISort": 48,
		"PlayerBuyMinLevel": 0
	},
	{
		"ID": 130,
		"StoreID": "StoreId_SkinHero",
		"Name": "Magic Maid",
		"ItemType": "GoodsType_HeroSkin",
		"ItemId": 401,
		"Nums": 1,
		"ShowStartTime": "2016/12/14 3:30:38",
		"ShowEndTime": "",
		"BuyLimitType": "BuyRuleType_Forever",
		"Param": 0,
		"Count": 0,
		"CurrencyType": "GoodsType_SkinTicket",
		"FirstPrice": 98,
		"NormalPrice": 98,
		"DiscountPrice": 0,
		"DiscountStartTime": "",
		"DiscountEndTime": "",
		"Lable": "LabelType_None",
		"IsFirstOnSale": false,
		"UISort": 49,
		"PlayerBuyMinLevel": 0
	},
	{
		"ID": 131,
		"StoreID": "StoreId_SkinHero",
		"Name": "Holy Night Lady",
		"ItemType": "GoodsType_HeroSkin",
		"ItemId": 5102,
		"Nums": 1,
		"ShowStartTime": "2018/12/20 10:00:00",
		"ShowEndTime": "2019/1/9 23:59:59",
		"BuyLimitType": "BuyRuleType_Forever",
		"Param": 0,
		"Count": 0,
		"CurrencyType": "GoodsType_SkinTicket",
		"FirstPrice": 98,
		"NormalPrice": 98,
		"DiscountPrice": 0,
		"DiscountStartTime": "",
		"DiscountEndTime": "",
		"Lable": "LabelType_FixedTime",
		"IsFirstOnSale": true,
		"UISort": 44,
		"PlayerBuyMinLevel": 0
	},
	{
		"ID": 132,
		"StoreID": "StoreId_SkinHero",
		"Name": "Ancient Beauty",
		"ItemType": "GoodsType_HeroSkin",
		"ItemId": 402,
		"Nums": 1,
		"ShowStartTime": "2019/9/12 6:00:00",
		"ShowEndTime": "2019/9/25 23:59:59",
		"BuyLimitType": "BuyRuleType_Forever",
		"Param": 0,
		"Count": 0,
		"CurrencyType": "GoodsType_SkinTicket",
		"FirstPrice": 98,
		"NormalPrice": 98,
		"DiscountPrice": 0,
		"DiscountStartTime": "",
		"DiscountEndTime": "",
		"Lable": "LabelType_FixedTime",
		"IsFirstOnSale": true,
		"UISort": 41,
		"PlayerBuyMinLevel": 0
	},
	{
		"ID": 133,
		"StoreID": "StoreId_SkinHero",
		"Name": "Frost Shadow",
		"ItemType": "GoodsType_HeroSkin",
		"ItemId": 2802,
		"Nums": 1,
		"ShowStartTime": "2019/9/12 6:00:00",
		"ShowEndTime": "2019/9/25 23:59:59",
		"BuyLimitType": "BuyRuleType_Forever",
		"Param": 0,
		"Count": 0,
		"CurrencyType": "GoodsType_SkinTicket",
		"FirstPrice": 98,
		"NormalPrice": 98,
		"DiscountPrice": 0,
		"DiscountStartTime": "",
		"DiscountEndTime": "",
		"Lable": "LabelType_FixedTime",
		"IsFirstOnSale": true,
		"UISort": 42,
		"PlayerBuyMinLevel": 0
	},
	{
		"ID": 134,
		"StoreID": "StoreId_SkinHero",
		"Name": "Silver Cat",
		"ItemType": "GoodsType_HeroSkin",
		"ItemId": 502,
		"Nums": 1,
		"ShowStartTime": "2019/1/31 00:00:00",
		"ShowEndTime": "2019/2/11 23:59:59",
		"BuyLimitType": "BuyRuleType_Forever",
		"Param": 0,
		"Count": 0,
		"CurrencyType": "GoodsType_SkinTicket",
		"FirstPrice": 98,
		"NormalPrice": 98,
		"DiscountPrice": 0,
		"DiscountStartTime": "",
		"DiscountEndTime": "",
		"Lable": "LabelType_FixedTime",
		"IsFirstOnSale": true,
		"UISort": 43,
		"PlayerBuyMinLevel": 0
	},
	{
		"ID": 135,
		"StoreID": "StoreId_SkinHero",
		"Name": "Sakura Sweetheart",
		"ItemType": "GoodsType_HeroSkin",
		"ItemId": 8101,
		"Nums": 1,
		"ShowStartTime": "2019/10/3 6:00:00",
		"ShowEndTime": "2019/10/23 23:59:59",
		"BuyLimitType": "BuyRuleType_Forever",
		"Param": 0,
		"Count": 0,
		"CurrencyType": "GoodsType_SkinTicket",
		"FirstPrice": 98,
		"NormalPrice": 98,
		"DiscountPrice": 0,
		"DiscountStartTime": "",
		"DiscountEndTime": "",
		"Lable": "LabelType_FixedTime",
		"IsFirstOnSale": true,
		"UISort": 44,
		"PlayerBuyMinLevel": 0
	},
	{
		"ID": 202,
		"StoreID": "StoreId_SkinSoldier",
		"Name": "Pinch Hitter",
		"ItemType": "GoodsType_SoldierSkin",
		"ItemId": 20201,
		"Nums": 1,
		"ShowStartTime": "2016/12/14 3:30:34",
		"ShowEndTime": "",
		"BuyLimitType": "BuyRuleType_Forever",
		"Param": 0,
		"Count": 0,
		"CurrencyType": "GoodsType_SkinTicket",
		"FirstPrice": 28,
		"NormalPrice": 28,
		"DiscountPrice": 0,
		"DiscountStartTime": "",
		"DiscountEndTime": "",
		"Lable": "LabelType_None",
		"IsFirstOnSale": false,
		"UISort": 60,
		"PlayerBuyMinLevel": 0
	},
	{
		"ID": 204,
		"StoreID": "StoreId_SkinSoldier",
		"Name": "Goalie",
		"ItemType": "GoodsType_SoldierSkin",
		"ItemId": 10201,
		"Nums": 1,
		"ShowStartTime": "2016/12/14 3:30:34",
		"ShowEndTime": "",
		"BuyLimitType": "BuyRuleType_Forever",
		"Param": 0,
		"Count": 0,
		"CurrencyType": "GoodsType_SkinTicket",
		"FirstPrice": 28,
		"NormalPrice": 28,
		"DiscountPrice": 0,
		"DiscountStartTime": "",
		"DiscountEndTime": "",
		"Lable": "LabelType_None",
		"IsFirstOnSale": false,
		"UISort": 61,
		"PlayerBuyMinLevel": 0
	},
	{
		"ID": 206,
		"StoreID": "StoreId_SkinSoldier",
		"Name": "Polar Bear Express",
		"ItemType": "GoodsType_SoldierSkin",
		"ItemId": 30201,
		"Nums": 1,
		"ShowStartTime": "2016/12/14 3:30:34",
		"ShowEndTime": "",
		"BuyLimitType": "BuyRuleType_Forever",
		"Param": 0,
		"Count": 0,
		"CurrencyType": "GoodsType_SkinTicket",
		"FirstPrice": 28,
		"NormalPrice": 28,
		"DiscountPrice": 0,
		"DiscountStartTime": "",
		"DiscountEndTime": "",
		"Lable": "LabelType_None",
		"IsFirstOnSale": false,
		"UISort": 62,
		"PlayerBuyMinLevel": 0
	},
	{
		"ID": 210,
		"StoreID": "StoreId_SkinSoldier",
		"Name": "Kamen Archer",
		"ItemType": "GoodsType_SoldierSkin",
		"ItemId": 60201,
		"Nums": 1,
		"ShowStartTime": "2016/12/14 3:30:34",
		"ShowEndTime": "",
		"BuyLimitType": "BuyRuleType_Forever",
		"Param": 0,
		"Count": 0,
		"CurrencyType": "GoodsType_SkinTicket",
		"FirstPrice": 28,
		"NormalPrice": 28,
		"DiscountPrice": 0,
		"DiscountStartTime": "",
		"DiscountEndTime": "",
		"Lable": "LabelType_None",
		"IsFirstOnSale": false,
		"UISort": 63,
		"PlayerBuyMinLevel": 0
	},
	{
		"ID": 212,
		"StoreID": "StoreId_SkinSoldier",
		"Name": "Mystery Doctor",
		"ItemType": "GoodsType_SoldierSkin",
		"ItemId": 80201,
		"Nums": 1,
		"ShowStartTime": "2016/12/14 3:30:34",
		"ShowEndTime": "",
		"BuyLimitType": "BuyRuleType_Forever",
		"Param": 0,
		"Count": 0,
		"CurrencyType": "GoodsType_SkinTicket",
		"FirstPrice": 28,
		"NormalPrice": 28,
		"DiscountPrice": 0,
		"DiscountStartTime": "",
		"DiscountEndTime": "",
		"Lable": "LabelType_None",
		"IsFirstOnSale": false,
		"UISort": 64,
		"PlayerBuyMinLevel": 0
	},
	{
		"ID": 214,
		"StoreID": "StoreId_SkinSoldier",
		"Name": "Anonymous",
		"ItemType": "GoodsType_SoldierSkin",
		"ItemId": 110201,
		"Nums": 1,
		"ShowStartTime": "2016/12/14 3:30:34",
		"ShowEndTime": "",
		"BuyLimitType": "BuyRuleType_Forever",
		"Param": 0,
		"Count": 0,
		"CurrencyType": "GoodsType_SkinTicket",
		"FirstPrice": 28,
		"NormalPrice": 28,
		"DiscountPrice": 0,
		"DiscountStartTime": "",
		"DiscountEndTime": "",
		"Lable": "LabelType_None",
		"IsFirstOnSale": false,
		"UISort": 65,
		"PlayerBuyMinLevel": 0
	},
	{
		"ID": 216,
		"StoreID": "StoreId_SkinSoldier",
		"Name": "Magic Summer",
		"ItemType": "GoodsType_SoldierSkin",
		"ItemId": 62201,
		"Nums": 1,
		"ShowStartTime": "2019/5/16 6:00:00",
		"ShowEndTime": "",
		"BuyLimitType": "BuyRuleType_Forever",
		"Param": 0,
		"Count": 0,
		"CurrencyType": "GoodsType_SkinTicket",
		"FirstPrice": 28,
		"NormalPrice": 28,
		"DiscountPrice": 0,
		"DiscountStartTime": "",
		"DiscountEndTime": "",
		"Lable": "LabelType_None",
		"IsFirstOnSale": false,
		"UISort": 50,
		"PlayerBuyMinLevel": 0
	},
	{
		"ID": 218,
		"StoreID": "StoreId_SkinSoldier",
		"Name": "Island Elf",
		"ItemType": "GoodsType_SoldierSkin",
		"ItemId": 60202,
		"Nums": 1,
		"ShowStartTime": "2019/5/16 6:00:00",
		"ShowEndTime": "",
		"BuyLimitType": "BuyRuleType_Forever",
		"Param": 0,
		"Count": 0,
		"CurrencyType": "GoodsType_SkinTicket",
		"FirstPrice": 28,
		"NormalPrice": 28,
		"DiscountPrice": 0,
		"DiscountStartTime": "",
		"DiscountEndTime": "",
		"Lable": "LabelType_None",
		"IsFirstOnSale": false,
		"UISort": 51,
		"PlayerBuyMinLevel": 0
	},
	{
		"ID": 220,
		"StoreID": "StoreId_SkinSoldier",
		"Name": "Beach Elf",
		"ItemType": "GoodsType_SoldierSkin",
		"ItemId": 61001,
		"Nums": 1,
		"ShowStartTime": "2019/5/16 6:00:00",
		"ShowEndTime": "",
		"BuyLimitType": "BuyRuleType_Forever",
		"Param": 0,
		"Count": 0,
		"CurrencyType": "GoodsType_SkinTicket",
		"FirstPrice": 28,
		"NormalPrice": 28,
		"DiscountPrice": 0,
		"DiscountStartTime": "",
		"DiscountEndTime": "",
		"Lable": "LabelType_None",
		"IsFirstOnSale": false,
		"UISort": 52,
		"PlayerBuyMinLevel": 0
	},
	{
		"ID": 221,
		"StoreID": "StoreId_SkinSoldier",
		"Name": "Holy Sister",
		"ItemType": "GoodsType_SoldierSkin",
		"ItemId": 80601,
		"Nums": 1,
		"ShowStartTime": "2019/7/11 1:00:00",
		"ShowEndTime": "2019/7/31 23:59:59",
		"BuyLimitType": "BuyRuleType_Forever",
		"Param": 0,
		"Count": 0,
		"CurrencyType": "GoodsType_SkinTicket",
		"FirstPrice": 28,
		"NormalPrice": 28,
		"DiscountPrice": 0,
		"DiscountStartTime": "",
		"DiscountEndTime": "",
		"Lable": "LabelType_FixedTime",
		"IsFirstOnSale": true,
		"UISort": 49,
		"PlayerBuyMinLevel": 0
	},
	{
		"ID": 222,
		"StoreID": "StoreId_SkinSoldier",
		"Name": "Koubu - Straight Slash",
		"ItemType": "GoodsType_SoldierSkin",
		"ItemId": 31101,
		"Nums": 1,
		"ShowStartTime": "2019/10/3 6:00:00",
		"ShowEndTime": "2019/10/23 23:59:59",
		"BuyLimitType": "BuyRuleType_Forever",
		"Param": 0,
		"Count": 0,
		"CurrencyType": "GoodsType_SkinTicket",
		"FirstPrice": 28,
		"NormalPrice": 28,
		"DiscountPrice": 0,
		"DiscountStartTime": "",
		"DiscountEndTime": "",
		"Lable": "LabelType_FixedTime",
		"IsFirstOnSale": true,
		"UISort": 49,
		"PlayerBuyMinLevel": 0
	},
	{
		"ID": 223,
		"StoreID": "StoreId_SkinSoldier",
		"Name": "Koubu - Heavy Armor",
		"ItemType": "GoodsType_SoldierSkin",
		"ItemId": 32601,
		"Nums": 1,
		"ShowStartTime": "2019/10/3 6:00:00",
		"ShowEndTime": "2019/10/23 23:59:59",
		"BuyLimitType": "BuyRuleType_Forever",
		"Param": 0,
		"Count": 0,
		"CurrencyType": "GoodsType_SkinTicket",
		"FirstPrice": 28,
		"NormalPrice": 28,
		"DiscountPrice": 0,
		"DiscountStartTime": "",
		"DiscountEndTime": "",
		"Lable": "LabelType_FixedTime",
		"IsFirstOnSale": true,
		"UISort": 49,
		"PlayerBuyMinLevel": 0
	},
	{
		"ID": 300,
		"StoreID": "StoreId_Memory",
		"Name": "SSR Weapon",
		"ItemType": "GoodsType_Item",
		"ItemId": 4021,
		"Nums": 1,
		"ShowStartTime": "2016/12/14 3:30:30",
		"ShowEndTime": "",
		"BuyLimitType": "BuyRuleType_MonthTime",
		"Param": 0,
		"Count": 2,
		"CurrencyType": "GoodsType_MemoryEssence",
		"FirstPrice": 2000,
		"NormalPrice": 2000,
		"DiscountPrice": 0,
		"DiscountStartTime": "",
		"DiscountEndTime": "",
		"Lable": "LabelType_None",
		"IsFirstOnSale": false,
		"UISort": 0,
		"PlayerBuyMinLevel": 0
	},
	{
		"ID": 301,
		"StoreID": "StoreId_Memory",
		"Name": "SSR Armor",
		"ItemType": "GoodsType_Item",
		"ItemId": 4022,
		"Nums": 1,
		"ShowStartTime": "2016/12/14 3:30:30",
		"ShowEndTime": "",
		"BuyLimitType": "BuyRuleType_MonthTime",
		"Param": 0,
		"Count": 2,
		"CurrencyType": "GoodsType_MemoryEssence",
		"FirstPrice": 2000,
		"NormalPrice": 2000,
		"DiscountPrice": 0,
		"DiscountStartTime": "",
		"DiscountEndTime": "",
		"Lable": "LabelType_None",
		"IsFirstOnSale": false,
		"UISort": 0,
		"PlayerBuyMinLevel": 0
	},
	{
		"ID": 302,
		"StoreID": "StoreId_Memory",
		"Name": "SSR Headgear",
		"ItemType": "GoodsType_Item",
		"ItemId": 4023,
		"Nums": 1,
		"ShowStartTime": "2016/12/14 3:30:30",
		"ShowEndTime": "",
		"BuyLimitType": "BuyRuleType_MonthTime",
		"Param": 0,
		"Count": 2,
		"CurrencyType": "GoodsType_MemoryEssence",
		"FirstPrice": 2000,
		"NormalPrice": 2000,
		"DiscountPrice": 0,
		"DiscountStartTime": "",
		"DiscountEndTime": "",
		"Lable": "LabelType_None",
		"IsFirstOnSale": false,
		"UISort": 0,
		"PlayerBuyMinLevel": 0
	},
	{
		"ID": 303,
		"StoreID": "StoreId_Memory",
		"Name": "SSR Accessory",
		"ItemType": "GoodsType_Item",
		"ItemId": 4024,
		"Nums": 1,
		"ShowStartTime": "2016/12/14 3:30:30",
		"ShowEndTime": "",
		"BuyLimitType": "BuyRuleType_MonthTime",
		"Param": 0,
		"Count": 2,
		"CurrencyType": "GoodsType_MemoryEssence",
		"FirstPrice": 2666,
		"NormalPrice": 2666,
		"DiscountPrice": 0,
		"DiscountStartTime": "",
		"DiscountEndTime": "",
		"Lable": "LabelType_None",
		"IsFirstOnSale": false,
		"UISort": 0,
		"PlayerBuyMinLevel": 0
	},
	{
		"ID": 304,
		"StoreID": "StoreId_Memory",
		"Name": "Epic Martial Spirit",
		"ItemType": "GoodsType_Equipment",
		"ItemId": 308,
		"Nums": 1,
		"ShowStartTime": "2016/12/14 3:30:30",
		"ShowEndTime": "",
		"BuyLimitType": "BuyRuleType_Forever",
		"Param": 0,
		"Count": 0,
		"CurrencyType": "GoodsType_MemoryEssence",
		"FirstPrice": 3000,
		"NormalPrice": 3000,
		"DiscountPrice": 0,
		"DiscountStartTime": "",
		"DiscountEndTime": "",
		"Lable": "LabelType_None",
		"IsFirstOnSale": false,
		"UISort": 0,
		"PlayerBuyMinLevel": 0
	},
	{
		"ID": 305,
		"StoreID": "StoreId_Memory",
		"Name": "Rune Stone",
		"ItemType": "GoodsType_Item",
		"ItemId": 3009,
		"Nums": 1,
		"ShowStartTime": "2016/12/14 3:30:30",
		"ShowEndTime": "",
		"BuyLimitType": "BuyRuleType_MonthTime",
		"Param": 0,
		"Count": 1,
		"CurrencyType": "GoodsType_MemoryEssence",
		"FirstPrice": 3500,
		"NormalPrice": 3500,
		"DiscountPrice": 0,
		"DiscountStartTime": "",
		"DiscountEndTime": "",
		"Lable": "LabelType_None",
		"IsFirstOnSale": false,
		"UISort": 0,
		"PlayerBuyMinLevel": 0
	},
	{
		"ID": 400,
		"StoreID": "StoreId_Equipment",
		"Name": "SR Weapon",
		"ItemType": "GoodsType_Item",
		"ItemId": 4018,
		"Nums": 1,
		"ShowStartTime": "2016/12/14 3:30:30",
		"ShowEndTime": "",
		"BuyLimitType": "BuyRuleType_WeekTime",
		"Param": 0,
		"Count": 5,
		"CurrencyType": "GoodsType_MithralStone",
		"FirstPrice": 200,
		"NormalPrice": 200,
		"DiscountPrice": 0,
		"DiscountStartTime": "",
		"DiscountEndTime": "",
		"Lable": "LabelType_None",
		"IsFirstOnSale": false,
		"UISort": 1,
		"PlayerBuyMinLevel": 0
	},
	{
		"ID": 401,
		"StoreID": "StoreId_Equipment",
		"Name": "SR Armor",
		"ItemType": "GoodsType_Item",
		"ItemId": 4019,
		"Nums": 1,
		"ShowStartTime": "2016/12/14 3:30:30",
		"ShowEndTime": "",
		"BuyLimitType": "BuyRuleType_WeekTime",
		"Param": 0,
		"Count": 5,
		"CurrencyType": "GoodsType_MithralStone",
		"FirstPrice": 200,
		"NormalPrice": 200,
		"DiscountPrice": 0,
		"DiscountStartTime": "",
		"DiscountEndTime": "",
		"Lable": "LabelType_None",
		"IsFirstOnSale": false,
		"UISort": 2,
		"PlayerBuyMinLevel": 0
	},
	{
		"ID": 402,
		"StoreID": "StoreId_Equipment",
		"Name": "SR Headgear",
		"ItemType": "GoodsType_Item",
		"ItemId": 4020,
		"Nums": 1,
		"ShowStartTime": "2016/12/14 3:30:30",
		"ShowEndTime": "",
		"BuyLimitType": "BuyRuleType_WeekTime",
		"Param": 0,
		"Count": 5,
		"CurrencyType": "GoodsType_MithralStone",
		"FirstPrice": 200,
		"NormalPrice": 200,
		"DiscountPrice": 0,
		"DiscountStartTime": "",
		"DiscountEndTime": "",
		"Lable": "LabelType_None",
		"IsFirstOnSale": false,
		"UISort": 3,
		"PlayerBuyMinLevel": 0
	},
	{
		"ID": 403,
		"StoreID": "StoreId_Equipment",
		"Name": "Special Enchantment Pack",
		"ItemType": "GoodsType_Item",
		"ItemId": 4501,
		"Nums": 1,
		"ShowStartTime": "2016/12/14 3:30:30",
		"ShowEndTime": "",
		"BuyLimitType": "BuyRuleType_WeekTime",
		"Param": 0,
		"Count": 10,
		"CurrencyType": "GoodsType_MithralStone",
		"FirstPrice": 200,
		"NormalPrice": 200,
		"DiscountPrice": 0,
		"DiscountStartTime": "",
		"DiscountEndTime": "",
		"Lable": "LabelType_None",
		"IsFirstOnSale": false,
		"UISort": 4,
		"PlayerBuyMinLevel": 0
	},
	{
		"ID": 404,
		"StoreID": "StoreId_Equipment",
		"Name": "Rare Martial Spirit",
		"ItemType": "GoodsType_Equipment",
		"ItemId": 307,
		"Nums": 1,
		"ShowStartTime": "2016/12/14 3:30:30",
		"ShowEndTime": "",
		"BuyLimitType": "BuyRuleType_Forever",
		"Param": 0,
		"Count": 0,
		"CurrencyType": "GoodsType_MithralStone",
		"FirstPrice": 300,
		"NormalPrice": 300,
		"DiscountPrice": 0,
		"DiscountStartTime": "",
		"DiscountEndTime": "",
		"Lable": "LabelType_None",
		"IsFirstOnSale": false,
		"UISort": 5,
		"PlayerBuyMinLevel": 0
	},
	{
		"ID": 405,
		"StoreID": "StoreId_Equipment",
		"Name": "SSR Weapon",
		"ItemType": "GoodsType_Item",
		"ItemId": 4021,
		"Nums": 1,
		"ShowStartTime": "2016/12/14 3:30:30",
		"ShowEndTime": "",
		"BuyLimitType": "BuyRuleType_WeekTime",
		"Param": 0,
		"Count": 3,
		"CurrencyType": "GoodsType_BrillianceMithralStone",
		"FirstPrice": 200,
		"NormalPrice": 200,
		"DiscountPrice": 0,
		"DiscountStartTime": "",
		"DiscountEndTime": "",
		"Lable": "LabelType_None",
		"IsFirstOnSale": false,
		"UISort": 7,
		"PlayerBuyMinLevel": 0
	},
	{
		"ID": 406,
		"StoreID": "StoreId_Equipment",
		"Name": "SSR Armor",
		"ItemType": "GoodsType_Item",
		"ItemId": 4022,
		"Nums": 1,
		"ShowStartTime": "2016/12/14 3:30:30",
		"ShowEndTime": "",
		"BuyLimitType": "BuyRuleType_WeekTime",
		"Param": 0,
		"Count": 3,
		"CurrencyType": "GoodsType_BrillianceMithralStone",
		"FirstPrice": 200,
		"NormalPrice": 200,
		"DiscountPrice": 0,
		"DiscountStartTime": "",
		"DiscountEndTime": "",
		"Lable": "LabelType_None",
		"IsFirstOnSale": false,
		"UISort": 8,
		"PlayerBuyMinLevel": 0
	},
	{
		"ID": 407,
		"StoreID": "StoreId_Equipment",
		"Name": "SSR Headgear",
		"ItemType": "GoodsType_Item",
		"ItemId": 4023,
		"Nums": 1,
		"ShowStartTime": "2016/12/14 3:30:30",
		"ShowEndTime": "",
		"BuyLimitType": "BuyRuleType_WeekTime",
		"Param": 0,
		"Count": 3,
		"CurrencyType": "GoodsType_BrillianceMithralStone",
		"FirstPrice": 200,
		"NormalPrice": 200,
		"DiscountPrice": 0,
		"DiscountStartTime": "",
		"DiscountEndTime": "",
		"Lable": "LabelType_None",
		"IsFirstOnSale": false,
		"UISort": 9,
		"PlayerBuyMinLevel": 0
	},
	{
		"ID": 408,
		"StoreID": "StoreId_Equipment",
		"Name": "Rare Enchant Gift Pack",
		"ItemType": "GoodsType_Item",
		"ItemId": 4502,
		"Nums": 1,
		"ShowStartTime": "2016/12/14 3:30:30",
		"ShowEndTime": "",
		"BuyLimitType": "BuyRuleType_WeekTime",
		"Param": 0,
		"Count": 5,
		"CurrencyType": "GoodsType_BrillianceMithralStone",
		"FirstPrice": 200,
		"NormalPrice": 200,
		"DiscountPrice": 0,
		"DiscountStartTime": "",
		"DiscountEndTime": "",
		"Lable": "LabelType_None",
		"IsFirstOnSale": false,
		"UISort": 10,
		"PlayerBuyMinLevel": 0
	},
	{
		"ID": 409,
		"StoreID": "StoreId_Equipment",
		"Name": "Epic Martial Spirit",
		"ItemType": "GoodsType_Equipment",
		"ItemId": 308,
		"Nums": 1,
		"ShowStartTime": "2016/12/14 3:30:30",
		"ShowEndTime": "",
		"BuyLimitType": "BuyRuleType_Forever",
		"Param": 0,
		"Count": 0,
		"CurrencyType": "GoodsType_BrillianceMithralStone",
		"FirstPrice": 300,
		"NormalPrice": 300,
		"DiscountPrice": 0,
		"DiscountStartTime": "",
		"DiscountEndTime": "",
		"Lable": "LabelType_None",
		"IsFirstOnSale": false,
		"UISort": 11,
		"PlayerBuyMinLevel": 0
	},
	{
		"ID": 410,
		"StoreID": "StoreId_Equipment",
		"Name": "120,000 Gold",
		"ItemType": "GoodsType_Gold",
		"ItemId": 0,
		"Nums": 120000,
		"ShowStartTime": "2016/12/14 3:30:30",
		"ShowEndTime": "",
		"BuyLimitType": "BuyRuleType_WeekTime",
		"Param": 0,
		"Count": 3,
		"CurrencyType": "GoodsType_MithralStone",
		"FirstPrice": 2000,
		"NormalPrice": 2000,
		"DiscountPrice": 0,
		"DiscountStartTime": "",
		"DiscountEndTime": "",
		"Lable": "LabelType_None",
		"IsFirstOnSale": false,
		"UISort": 6,
		"PlayerBuyMinLevel": 45
	},
	{
		"ID": 501,
		"StoreID": "StoreId_GuildPerson",
		"Name": "Basic Class Materials",
		"ItemType": "GoodsType_Item",
		"ItemId": 4503,
		"Nums": 1,
		"ShowStartTime": "2016/12/14 3:30:30",
		"ShowEndTime": "",
		"BuyLimitType": "BuyRuleType_Forever",
		"Param": 0,
		"Count": 0,
		"CurrencyType": "GoodsType_GuildMedal",
		"FirstPrice": 100,
		"NormalPrice": 100,
		"DiscountPrice": 0,
		"DiscountStartTime": "",
		"DiscountEndTime": "",
		"Lable": "LabelType_None",
		"IsFirstOnSale": false,
		"UISort": 1,
		"PlayerBuyMinLevel": 0
	},
	{
		"ID": 502,
		"StoreID": "StoreId_GuildPerson",
		"Name": "Lv.35 Class Materials",
		"ItemType": "GoodsType_Item",
		"ItemId": 4504,
		"Nums": 1,
		"ShowStartTime": "2016/12/14 3:30:30",
		"ShowEndTime": "",
		"BuyLimitType": "BuyRuleType_WeekTime",
		"Param": 0,
		"Count": 12,
		"CurrencyType": "GoodsType_GuildMedal",
		"FirstPrice": 150,
		"NormalPrice": 150,
		"DiscountPrice": 0,
		"DiscountStartTime": "",
		"DiscountEndTime": "",
		"Lable": "LabelType_None",
		"IsFirstOnSale": false,
		"UISort": 2,
		"PlayerBuyMinLevel": 35
	},
	{
		"ID": 503,
		"StoreID": "StoreId_GuildPerson",
		"Name": "Lv.40 Class Materials",
		"ItemType": "GoodsType_Item",
		"ItemId": 4505,
		"Nums": 1,
		"ShowStartTime": "2016/12/14 3:30:30",
		"ShowEndTime": "",
		"BuyLimitType": "BuyRuleType_WeekTime",
		"Param": 0,
		"Count": 12,
		"CurrencyType": "GoodsType_GuildMedal",
		"FirstPrice": 200,
		"NormalPrice": 200,
		"DiscountPrice": 0,
		"DiscountStartTime": "",
		"DiscountEndTime": "",
		"Lable": "LabelType_None",
		"IsFirstOnSale": false,
		"UISort": 3,
		"PlayerBuyMinLevel": 40
	},
	{
		"ID": 504,
		"StoreID": "StoreId_GuildPerson",
		"Name": "Lv.45 Class Materials",
		"ItemType": "GoodsType_Item",
		"ItemId": 4506,
		"Nums": 1,
		"ShowStartTime": "2016/12/14 3:30:30",
		"ShowEndTime": "",
		"BuyLimitType": "BuyRuleType_WeekTime",
		"Param": 0,
		"Count": 10,
		"CurrencyType": "GoodsType_GuildMedal",
		"FirstPrice": 400,
		"NormalPrice": 400,
		"DiscountPrice": 0,
		"DiscountStartTime": "",
		"DiscountEndTime": "",
		"Lable": "LabelType_None",
		"IsFirstOnSale": false,
		"UISort": 4,
		"PlayerBuyMinLevel": 45
	},
	{
		"ID": 505,
		"StoreID": "StoreId_GuildPerson",
		"Name": "Lv.50 Class Materials",
		"ItemType": "GoodsType_Item",
		"ItemId": 4507,
		"Nums": 1,
		"ShowStartTime": "2016/12/14 3:30:31",
		"ShowEndTime": "",
		"BuyLimitType": "BuyRuleType_WeekTime",
		"Param": 0,
		"Count": 20,
		"CurrencyType": "GoodsType_GuildMedal",
		"FirstPrice": 600,
		"NormalPrice": 600,
		"DiscountPrice": 0,
		"DiscountStartTime": "",
		"DiscountEndTime": "",
		"Lable": "LabelType_None",
		"IsFirstOnSale": false,
		"UISort": 5,
		"PlayerBuyMinLevel": 50
	},
	{
		"ID": 506,
		"StoreID": "StoreId_GuildPerson",
		"Name": "Lv.55 Class Materials",
		"ItemType": "GoodsType_Item",
		"ItemId": 4508,
		"Nums": 1,
		"ShowStartTime": "2016/12/14 3:30:33",
		"ShowEndTime": "",
		"BuyLimitType": "BuyRuleType_WeekTime",
		"Param": 0,
		"Count": 8,
		"CurrencyType": "GoodsType_GuildMedal",
		"FirstPrice": 800,
		"NormalPrice": 800,
		"DiscountPrice": 0,
		"DiscountStartTime": "",
		"DiscountEndTime": "",
		"Lable": "LabelType_None",
		"IsFirstOnSale": false,
		"UISort": 6,
		"PlayerBuyMinLevel": 55
	},
	{
		"ID": 507,
		"StoreID": "StoreId_GuildPerson",
		"Name": "Rune Stone",
		"ItemType": "GoodsType_Item",
		"ItemId": 3009,
		"Nums": 1,
		"ShowStartTime": "2016/12/14 3:30:34",
		"ShowEndTime": "",
		"BuyLimitType": "BuyRuleType_MonthTime",
		"Param": 0,
		"Count": 1,
		"CurrencyType": "GoodsType_GuildMedal",
		"FirstPrice": 3000,
		"NormalPrice": 3000,
		"DiscountPrice": 0,
		"DiscountStartTime": "",
		"DiscountEndTime": "",
		"Lable": "LabelType_None",
		"IsFirstOnSale": false,
		"UISort": 7,
		"PlayerBuyMinLevel": 0
	},
	{
		"ID": 508,
		"StoreID": "StoreId_GuildPerson",
		"Name": "Basic Rune Collection",
		"ItemType": "GoodsType_Item",
		"ItemId": 4509,
		"Nums": 1,
		"ShowStartTime": "2016/12/14 3:30:34",
		"ShowEndTime": "",
		"BuyLimitType": "BuyRuleType_Forever",
		"Param": 0,
		"Count": 0,
		"CurrencyType": "GoodsType_GuildMedal",
		"FirstPrice": 100,
		"NormalPrice": 100,
		"DiscountPrice": 0,
		"DiscountStartTime": "",
		"DiscountEndTime": "",
		"Lable": "LabelType_None",
		"IsFirstOnSale": false,
		"UISort": 9,
		"PlayerBuyMinLevel": 0
	},
	{
		"ID": 509,
		"StoreID": "StoreId_GuildPerson",
		"Name": "Special Rune Collection",
		"ItemType": "GoodsType_Item",
		"ItemId": 4510,
		"Nums": 1,
		"ShowStartTime": "2016/12/14 3:30:34",
		"ShowEndTime": "",
		"BuyLimitType": "BuyRuleType_WeekTime",
		"Param": 0,
		"Count": 0,
		"CurrencyType": "GoodsType_GuildMedal",
		"FirstPrice": 150,
		"NormalPrice": 150,
		"DiscountPrice": 0,
		"DiscountStartTime": "",
		"DiscountEndTime": "",
		"Lable": "LabelType_None",
		"IsFirstOnSale": false,
		"UISort": 10,
		"PlayerBuyMinLevel": 35
	},
	{
		"ID": 510,
		"StoreID": "StoreId_GuildPerson",
		"Name": "Rare Rune Collection",
		"ItemType": "GoodsType_Item",
		"ItemId": 4511,
		"Nums": 1,
		"ShowStartTime": "2016/12/14 3:30:34",
		"ShowEndTime": "",
		"BuyLimitType": "BuyRuleType_WeekTime",
		"Param": 0,
		"Count": 0,
		"CurrencyType": "GoodsType_GuildMedal",
		"FirstPrice": 250,
		"NormalPrice": 250,
		"DiscountPrice": 0,
		"DiscountStartTime": "",
		"DiscountEndTime": "",
		"Lable": "LabelType_None",
		"IsFirstOnSale": false,
		"UISort": 11,
		"PlayerBuyMinLevel": 45
	},
	{
		"ID": 511,
		"StoreID": "StoreId_GuildPerson",
		"Name": "Epic Rune Collection",
		"ItemType": "GoodsType_Item",
		"ItemId": 4512,
		"Nums": 1,
		"ShowStartTime": "2016/12/14 3:30:34",
		"ShowEndTime": "",
		"BuyLimitType": "BuyRuleType_WeekTime",
		"Param": 0,
		"Count": 0,
		"CurrencyType": "GoodsType_GuildMedal",
		"FirstPrice": 350,
		"NormalPrice": 350,
		"DiscountPrice": 0,
		"DiscountStartTime": "",
		"DiscountEndTime": "",
		"Lable": "LabelType_None",
		"IsFirstOnSale": false,
		"UISort": 12,
		"PlayerBuyMinLevel": 50
	},
	{
		"ID": 512,
		"StoreID": "StoreId_GuildPerson",
		"Name": "100K Gold",
		"ItemType": "GoodsType_Gold",
		"ItemId": 0,
		"Nums": 100000,
		"ShowStartTime": "2016/12/14 3:30:34",
		"ShowEndTime": "",
		"BuyLimitType": "BuyRuleType_WeekTime",
		"Param": 0,
		"Count": 5,
		"CurrencyType": "GoodsType_GuildMedal",
		"FirstPrice": 800,
		"NormalPrice": 800,
		"DiscountPrice": 0,
		"DiscountStartTime": "",
		"DiscountEndTime": "",
		"Lable": "LabelType_None",
		"IsFirstOnSale": false,
		"UISort": 8,
		"PlayerBuyMinLevel": 55
	},
	{
		"ID": 600,
		"Name": "Errant Knight",
		"ItemType": "GoodsType_Equipment",
		"ItemId": 273,
		"Nums": 1,
		"ShowStartTime": "2016/12/14 3:30:30",
		"ShowEndTime": "",
		"BuyLimitType": "BuyRuleType_Forever",
		"Param": 0,
		"Count": 1,
		"FirstPrice": 150,
		"NormalPrice": 150,
		"DiscountPrice": 0,
		"DiscountStartTime": "",
		"DiscountEndTime": "",
		"Lable": "LabelType_None",
		"IsFirstOnSale": false,
		"UISort": 1,
		"PlayerBuyMinLevel": 0
	},
	{
		"ID": 601,
		"Name": "Golden Lion",
		"ItemType": "GoodsType_Equipment",
		"ItemId": 274,
		"Nums": 1,
		"ShowStartTime": "2016/12/14 3:30:30",
		"ShowEndTime": "",
		"BuyLimitType": "BuyRuleType_Forever",
		"Param": 0,
		"Count": 1,
		"FirstPrice": 150,
		"NormalPrice": 150,
		"DiscountPrice": 0,
		"DiscountStartTime": "",
		"DiscountEndTime": "",
		"Lable": "LabelType_None",
		"IsFirstOnSale": false,
		"UISort": 2,
		"PlayerBuyMinLevel": 0
	},
	{
		"ID": 602,
		"Name": "Black Bride",
		"ItemType": "GoodsType_Equipment",
		"ItemId": 275,
		"Nums": 1,
		"ShowStartTime": "2016/12/14 3:30:30",
		"ShowEndTime": "",
		"BuyLimitType": "BuyRuleType_Forever",
		"Param": 0,
		"Count": 1,
		"FirstPrice": 150,
		"NormalPrice": 150,
		"DiscountPrice": 0,
		"DiscountStartTime": "",
		"DiscountEndTime": "",
		"Lable": "LabelType_None",
		"IsFirstOnSale": false,
		"UISort": 3,
		"PlayerBuyMinLevel": 0
	},
	{
		"ID": 603,
		"Name": "Gorgeous Red",
		"ItemType": "GoodsType_Equipment",
		"ItemId": 276,
		"Nums": 1,
		"ShowStartTime": "2016/12/14 3:30:30",
		"ShowEndTime": "",
		"BuyLimitType": "BuyRuleType_Forever",
		"Param": 0,
		"Count": 1,
		"FirstPrice": 150,
		"NormalPrice": 150,
		"DiscountPrice": 0,
		"DiscountStartTime": "",
		"DiscountEndTime": "",
		"Lable": "LabelType_None",
		"IsFirstOnSale": false,
		"UISort": 4,
		"PlayerBuyMinLevel": 0
	},
	{
		"ID": 604,
		"Name": "Kizuna Band",
		"ItemType": "GoodsType_Equipment",
		"ItemId": 277,
		"Nums": 1,
		"ShowStartTime": "2016/12/14 3:30:30",
		"ShowEndTime": "",
		"BuyLimitType": "BuyRuleType_Forever",
		"Param": 0,
		"Count": 1,
		"FirstPrice": 150,
		"NormalPrice": 150,
		"DiscountPrice": 0,
		"DiscountStartTime": "",
		"DiscountEndTime": "",
		"Lable": "LabelType_None",
		"IsFirstOnSale": false,
		"UISort": 5,
		"PlayerBuyMinLevel": 0
	},
	{
		"ID": 605,
		"Name": "Riguler Crown",
		"ItemType": "GoodsType_Equipment",
		"ItemId": 278,
		"Nums": 1,
		"ShowStartTime": "2016/12/14 3:30:30",
		"ShowEndTime": "",
		"BuyLimitType": "BuyRuleType_Forever",
		"Param": 0,
		"Count": 1,
		"FirstPrice": 150,
		"NormalPrice": 150,
		"DiscountPrice": 0,
		"DiscountStartTime": "",
		"DiscountEndTime": "",
		"Lable": "LabelType_None",
		"IsFirstOnSale": false,
		"UISort": 6,
		"PlayerBuyMinLevel": 0
	},
	{
		"ID": 606,
		"Name": "Dark Dawn",
		"ItemType": "GoodsType_Equipment",
		"ItemId": 281,
		"Nums": 1,
		"ShowStartTime": "2016/12/14 3:30:30",
		"ShowEndTime": "",
		"BuyLimitType": "BuyRuleType_Forever",
		"Param": 0,
		"Count": 1,
		"FirstPrice": 150,
		"NormalPrice": 150,
		"DiscountPrice": 0,
		"DiscountStartTime": "",
		"DiscountEndTime": "",
		"Lable": "LabelType_None",
		"IsFirstOnSale": false,
		"UISort": 7,
		"PlayerBuyMinLevel": 0
	},
	{
		"ID": 607,
		"Name": "Jugler's Gift",
		"ItemType": "GoodsType_Equipment",
		"ItemId": 280,
		"Nums": 1,
		"ShowStartTime": "2016/12/14 3:30:30",
		"ShowEndTime": "",
		"BuyLimitType": "BuyRuleType_Forever",
		"Param": 0,
		"Count": 1,
		"FirstPrice": 150,
		"NormalPrice": 150,
		"DiscountPrice": 0,
		"DiscountStartTime": "",
		"DiscountEndTime": "",
		"Lable": "LabelType_None",
		"IsFirstOnSale": false,
		"UISort": 8,
		"PlayerBuyMinLevel": 0
	},
	{
		"ID": 608,
		"Name": "Fairy Wings",
		"ItemType": "GoodsType_Equipment",
		"ItemId": 286,
		"Nums": 1,
		"ShowStartTime": "2016/12/14 3:30:30",
		"ShowEndTime": "",
		"BuyLimitType": "BuyRuleType_Forever",
		"Param": 0,
		"Count": 1,
		"FirstPrice": 150,
		"NormalPrice": 150,
		"DiscountPrice": 0,
		"DiscountStartTime": "",
		"DiscountEndTime": "",
		"Lable": "LabelType_None",
		"IsFirstOnSale": false,
		"UISort": 9,
		"PlayerBuyMinLevel": 0
	},
	{
		"ID": 609,
		"Name": "Protective Rune Suit",
		"ItemType": "GoodsType_Equipment",
		"ItemId": 279,
		"Nums": 1,
		"ShowStartTime": "2016/12/14 3:30:30",
		"ShowEndTime": "",
		"BuyLimitType": "BuyRuleType_Forever",
		"Param": 0,
		"Count": 1,
		"FirstPrice": 150,
		"NormalPrice": 150,
		"DiscountPrice": 0,
		"DiscountStartTime": "",
		"DiscountEndTime": "",
		"Lable": "LabelType_None",
		"IsFirstOnSale": false,
		"UISort": 10,
		"PlayerBuyMinLevel": 0
	},
	{
		"ID": 610,
		"Name": "Farsight",
		"ItemType": "GoodsType_Equipment",
		"ItemId": 287,
		"Nums": 1,
		"ShowStartTime": "2016/12/14 3:30:30",
		"ShowEndTime": "",
		"BuyLimitType": "BuyRuleType_Forever",
		"Param": 0,
		"Count": 1,
		"FirstPrice": 150,
		"NormalPrice": 150,
		"DiscountPrice": 0,
		"DiscountStartTime": "",
		"DiscountEndTime": "",
		"Lable": "LabelType_None",
		"IsFirstOnSale": false,
		"UISort": 11,
		"PlayerBuyMinLevel": 0
	},
	{
		"ID": 611,
		"Name": "1UP",
		"ItemType": "GoodsType_Equipment",
		"ItemId": 292,
		"Nums": 1,
		"ShowStartTime": "2016/12/14 3:30:30",
		"ShowEndTime": "",
		"BuyLimitType": "BuyRuleType_Forever",
		"Param": 0,
		"Count": 1,
		"FirstPrice": 150,
		"NormalPrice": 150,
		"DiscountPrice": 0,
		"DiscountStartTime": "",
		"DiscountEndTime": "",
		"Lable": "LabelType_None",
		"IsFirstOnSale": false,
		"UISort": 12,
		"PlayerBuyMinLevel": 0
	},
	{
		"ID": 612,
		"Name": "My, my, my Princess?",
		"ItemType": "GoodsType_Equipment",
		"ItemId": 298,
		"Nums": 1,
		"ShowStartTime": "2016/12/14 3:30:30",
		"ShowEndTime": "",
		"BuyLimitType": "BuyRuleType_Forever",
		"Param": 0,
		"Count": 1,
		"FirstPrice": 150,
		"NormalPrice": 150,
		"DiscountPrice": 0,
		"DiscountStartTime": "",
		"DiscountEndTime": "",
		"Lable": "LabelType_None",
		"IsFirstOnSale": false,
		"UISort": 13,
		"PlayerBuyMinLevel": 0
	},
	{
		"ID": 701,
		"Name": "Ruby Knight",
		"ItemType": "GoodsType_HeroSkin",
		"ItemId": 1203,
		"Nums": 1,
		"ShowStartTime": "2016/12/14 3:30:34",
		"ShowEndTime": "",
		"BuyLimitType": "BuyRuleType_Forever",
		"Param": 0,
		"Count": 1,
		"FirstPrice": 6,
		"NormalPrice": 6,
		"DiscountPrice": 0,
		"DiscountStartTime": "",
		"DiscountEndTime": "",
		"Lable": "LabelType_None",
		"IsFirstOnSale": false,
		"UISort": 1,
		"PlayerBuyMinLevel": 0
	},
	{
		"ID": 702,
		"Name": "Skysoar",
		"ItemType": "GoodsType_HeroSkin",
		"ItemId": 2001,
		"Nums": 1,
		"ShowStartTime": "2016/12/14 3:30:34",
		"ShowEndTime": "",
		"BuyLimitType": "BuyRuleType_Forever",
		"Param": 0,
		"Count": 1,
		"FirstPrice": 6,
		"NormalPrice": 6,
		"DiscountPrice": 0,
		"DiscountStartTime": "",
		"DiscountEndTime": "",
		"Lable": "LabelType_None",
		"IsFirstOnSale": false,
		"UISort": 1,
		"PlayerBuyMinLevel": 0
	},
	{
		"ID": 996,
		"StoreID": "StoreId_SkinHero",
		"Name": "Flowing Yukata",
		"ItemType": "GoodsType_HeroSkin",
		"ItemId": 3303,
		"Nums": 1,
		"ShowStartTime": "2019/7/25 6:00:00",
		"ShowEndTime": "2019/8/7 23:59:59",
		"BuyLimitType": "BuyRuleType_Forever",
		"Param": 0,
		"Count": 0,
		"CurrencyType": "GoodsType_SkinTicket",
		"FirstPrice": 98,
		"NormalPrice": 98,
		"DiscountPrice": 0,
		"DiscountStartTime": "",
		"DiscountEndTime": "",
		"Lable": "LabelType_FixedTime",
		"IsFirstOnSale": true,
		"UISort": 4,
		"PlayerBuyMinLevel": 0
	},
	{
		"ID": 997,
		"StoreID": "StoreId_SkinHero",
		"Name": "Drummer Girl",
		"ItemType": "GoodsType_HeroSkin",
		"ItemId": 2903,
		"Nums": 1,
		"ShowStartTime": "2019/7/25 6:00:00",
		"ShowEndTime": "2019/8/7 23:59:59",
		"BuyLimitType": "BuyRuleType_Forever",
		"Param": 0,
		"Count": 0,
		"CurrencyType": "GoodsType_SkinTicket",
		"FirstPrice": 98,
		"NormalPrice": 98,
		"DiscountPrice": 0,
		"DiscountStartTime": "",
		"DiscountEndTime": "",
		"Lable": "LabelType_FixedTime",
		"IsFirstOnSale": true,
		"UISort": 3,
		"PlayerBuyMinLevel": 0
	},
	{
		"ID": 998,
		"StoreID": "StoreId_SkinHero",
		"Name": "Runaway Bride",
		"ItemType": "GoodsType_HeroSkin",
		"ItemId": 1499,
		"Nums": 1,
		"ShowStartTime": "2019/6/13 1:00:00",
		"ShowEndTime": "2019/6/26 23:59:59",
		"BuyLimitType": "BuyRuleType_Forever",
		"Param": 0,
		"Count": 0,
		"CurrencyType": "GoodsType_SkinTicket",
		"FirstPrice": 188,
		"NormalPrice": 188,
		"DiscountPrice": 0,
		"DiscountStartTime": "",
		"DiscountEndTime": "",
		"Lable": "LabelType_FixedTime",
		"IsFirstOnSale": true,
		"UISort": 4,
		"PlayerBuyMinLevel": 0
	},
	{
		"ID": 999,
		"StoreID": "StoreId_SkinHero",
		"Name": "Endless Love",
		"ItemType": "GoodsType_HeroSkin",
		"ItemId": 899,
		"Nums": 1,
		"ShowStartTime": "2019/6/13 1:00:00",
		"ShowEndTime": "2019/6/26 23:59:59",
		"BuyLimitType": "BuyRuleType_Forever",
		"Param": 0,
		"Count": 0,
		"CurrencyType": "GoodsType_SkinTicket",
		"FirstPrice": 188,
		"NormalPrice": 188,
		"DiscountPrice": 0,
		"DiscountStartTime": "",
		"DiscountEndTime": "",
		"Lable": "LabelType_FixedTime",
		"IsFirstOnSale": true,
		"UISort": 3,
		"PlayerBuyMinLevel": 0
	}
]