[
	{
		"ID": 1,
		"Name": "Assistant No. 1",
		"Resource": [
			"UI",
			"Icon",
			"Item_ABS",
			"Item_StarterPack.png"
		],
		"TaskIDs": [
			1,
			2,
			3,
			4,
			5
		],
		"Weekday": 1,
		"RecommendHeroes": [
			1,
			7,
			10,
			12,
			40,
			37,
			53
		],
		"SoldierTypeList": [
			2
		]
	},
	{
		"ID": 2,
		"Name": "Assistant No. 2",
		"Resource": [
			"UI",
			"Icon",
			"Item_ABS",
			"Item_StarterPack.png"
		],
		"TaskIDs": [
			6,
			7,
			8,
			9,
			10
		],
		"Weekday": 2,
		"RecommendHeroes": [
			3,
			21,
			33,
			41,
			48,
			25,
			55,
			58
		],
		"SoldierTypeList": [
			1
		]
	},
	{
		"ID": 3,
		"Name": "Assistant No. 3",
		"Resource": [
			"UI",
			"Icon",
			"Item_ABS",
			"Item_StarterPack.png"
		],
		"TaskIDs": [
			11,
			12,
			13,
			14,
			15
		],
		"Weekday": 3,
		"RecommendHeroes": [
			6,
			20,
			24,
			32,
			44,
			47,
			27,
			38
		],
		"SoldierTypeList": [
			3
		]
	},
	{
		"ID": 4,
		"Name": "Assistant No. 4",
		"Resource": [
			"UI",
			"Icon",
			"Item_ABS",
			"Item_StarterPack.png"
		],
		"TaskIDs": [
			16,
			17,
			18,
			19,
			20
		],
		"Weekday": 4,
		"RecommendHeroes": [
			14,
			16,
			19,
			45,
			26,
			52
		],
		"SoldierTypeList": [
			4,
			5
		]
	},
	{
		"ID": 5,
		"Name": "Assistant No. 5",
		"Resource": [
			"UI",
			"Icon",
			"Item_ABS",
			"Item_StarterPack.png"
		],
		"TaskIDs": [
			21,
			22,
			23,
			24,
			25
		],
		"Weekday": 5,
		"RecommendHeroes": [
			11,
			23,
			34,
			36,
			42,
			49,
			28,
			60
		],
		"SoldierTypeList": [
			6,
			11
		]
	},
	{
		"ID": 6,
		"Name": "Assistant No. 6",
		"Resource": [
			"UI",
			"Icon",
			"Item_ABS",
			"Item_StarterPack.png"
		],
		"TaskIDs": [
			26,
			27,
			28,
			29,
			30
		],
		"Weekday": 6,
		"RecommendHeroes": [
			4,
			5,
			9,
			15,
			31,
			43,
			29,
			39,
			54,
			57
		],
		"SoldierTypeList": [
			8,
			9
		]
	},
	{
		"ID": 7,
		"Name": "Assistant No. 7",
		"Resource": [
			"UI",
			"Icon",
			"Item_ABS",
			"Item_StarterPack.png"
		],
		"TaskIDs": [
			31,
			32,
			33,
			34,
			35
		],
		"Weekday": 7,
		"RecommendHeroes": [
			8,
			13,
			17,
			18,
			22,
			30,
			51,
			56,
			61,
			59,
			35
		],
		"SoldierTypeList": [
			2,
			1,
			3
		]
	}
]