[
	{
		"ID": 1,
		"Name": "Top 1-10",
		"HighRank": 1,
		"LowRank": 10,
		"RankingRewardMailTemplateId": 61
	},
	{
		"ID": 2,
		"Name": "Top 11-100",
		"HighRank": 11,
		"LowRank": 100,
		"RankingRewardMailTemplateId": 62
	},
	{
		"ID": 3,
		"Name": "Top 101-200",
		"HighRank": 101,
		"LowRank": 200,
		"RankingRewardMailTemplateId": 63
	},
	{
		"ID": 4,
		"Name": "Top 201-300",
		"HighRank": 201,
		"LowRank": 300,
		"RankingRewardMailTemplateId": 64
	},
	{
		"ID": 5,
		"Name": "Top 301-500",
		"HighRank": 301,
		"LowRank": 500,
		"RankingRewardMailTemplateId": 65
	},
	{
		"ID": 6,
		"Name": "Top 501-800",
		"HighRank": 501,
		"LowRank": 800,
		"RankingRewardMailTemplateId": 66
	},
	{
		"ID": 7,
		"Name": "Top 801-1,200",
		"HighRank": 801,
		"LowRank": 1200,
		"RankingRewardMailTemplateId": 67
	},
	{
		"ID": 8,
		"Name": "Top 1,201-2,500",
		"HighRank": 1201,
		"LowRank": 2500,
		"RankingRewardMailTemplateId": 68
	},
	{
		"ID": 9,
		"Name": "Top 2,501-5,000",
		"HighRank": 2501,
		"LowRank": 5000,
		"RankingRewardMailTemplateId": 69
	},
	{
		"ID": 10,
		"Name": "Top 5,001-7,500",
		"HighRank": 5001,
		"LowRank": 7500,
		"RankingRewardMailTemplateId": 70
	},
	{
		"ID": 11,
		"Name": "Top 7,501-10,000",
		"HighRank": 7501,
		"LowRank": 10000,
		"RankingRewardMailTemplateId": 71
	}
]